{
  "type": "Program",
  "body": [
    {
      "type": "ImportDeclaration",
      "specifiers": [
        {
          "type": "ImportSpecifier",
          "local": {
            "type": "Identifier",
            "name": "spawn",
            "range": [
              14,
              19
            ],
            "loc": {
              "start": {
                "line": 2,
                "column": 4
              },
              "end": {
                "line": 2,
                "column": 9
              }
            }
          },
          "imported": {
            "type": "Identifier",
            "name": "spawn",
            "range": [
              14,
              19
            ],
            "loc": {
              "start": {
                "line": 2,
                "column": 4
              },
              "end": {
                "line": 2,
                "column": 9
              }
            }
          },
          "range": [
            14,
            19
          ],
          "loc": {
            "start": {
              "line": 2,
              "column": 4
            },
            "end": {
              "line": 2,
              "column": 9
            }
          }
        }
      ],
      "source": {
        "type": "Literal",
        "value": "child_process",
        "raw": "\"child_process\"",
        "range": [
          28,
          43
        ],
        "loc": {
          "start": {
            "line": 3,
            "column": 7
          },
          "end": {
            "line": 3,
            "column": 22
          }
        }
      },
      "range": [
        0,
        44
      ],
      "loc": {
        "start": {
          "line": 1,
          "column": 0
        },
        "end": {
          "line": 3,
          "column": 23
        }
      }
    },
    {
      "type": "ImportDeclaration",
      "specifiers": [
        {
          "type": "ImportDefaultSpecifier",
          "local": {
            "type": "Identifier",
            "name": "_",
            "range": [
              53,
              54
            ],
            "loc": {
              "start": {
                "line": 4,
                "column": 7
              },
              "end": {
                "line": 4,
                "column": 8
              }
            }
          },
          "range": [
            53,
            54
          ],
          "loc": {
            "start": {
              "line": 4,
              "column": 7
            },
            "end": {
              "line": 4,
              "column": 8
            }
          }
        }
      ],
      "source": {
        "type": "Literal",
        "value": "lodash",
        "raw": "\"lodash\"",
        "range": [
          60,
          68
        ],
        "loc": {
          "start": {
            "line": 4,
            "column": 14
          },
          "end": {
            "line": 4,
            "column": 22
          }
        }
      },
      "range": [
        46,
        69
      ],
      "loc": {
        "start": {
          "line": 4,
          "column": 0
        },
        "end": {
          "line": 4,
          "column": 23
        }
      }
    },
    {
      "type": "VariableDeclaration",
      "declarations": [
        {
          "type": "VariableDeclarator",
          "id": {
            "type": "Identifier",
            "name": "node",
            "range": [
              77,
              81
            ],
            "loc": {
              "start": {
                "line": 5,
                "column": 6
              },
              "end": {
                "line": 5,
                "column": 10
              }
            }
          },
          "init": {
            "type": "MemberExpression",
            "computed": true,
            "object": {
              "type": "MemberExpression",
              "computed": false,
              "object": {
                "type": "Identifier",
                "name": "process",
                "range": [
                  84,
                  91
                ],
                "loc": {
                  "start": {
                    "line": 5,
                    "column": 13
                  },
                  "end": {
                    "line": 5,
                    "column": 20
                  }
                }
              },
              "property": {
                "type": "Identifier",
                "name": "argv",
                "range": [
                  92,
                  96
                ],
                "loc": {
                  "start": {
                    "line": 5,
                    "column": 21
                  },
                  "end": {
                    "line": 5,
                    "column": 25
                  }
                }
              },
              "range": [
                84,
                96
              ],
              "loc": {
                "start": {
                  "line": 5,
                  "column": 13
                },
                "end": {
                  "line": 5,
                  "column": 25
                }
              }
            },
            "property": {
              "type": "Literal",
              "value": 0,
              "raw": "0",
              "range": [
                97,
                98
              ],
              "loc": {
                "start": {
                  "line": 5,
                  "column": 26
                },
                "end": {
                  "line": 5,
                  "column": 27
                }
              }
            },
            "range": [
              84,
              99
            ],
            "loc": {
              "start": {
                "line": 5,
                "column": 13
              },
              "end": {
                "line": 5,
                "column": 28
              }
            }
          },
          "range": [
            77,
            99
          ],
          "loc": {
            "start": {
              "line": 5,
              "column": 6
            },
            "end": {
              "line": 5,
              "column": 28
            }
          }
        }
      ],
      "kind": "const",
      "range": [
        71,
        100
      ],
      "loc": {
        "start": {
          "line": 5,
          "column": 0
        },
        "end": {
          "line": 5,
          "column": 29
        }
      }
    },
    {
      "type": "VariableDeclaration",
      "declarations": [
        {
          "type": "VariableDeclarator",
          "id": {
            "type": "Identifier",
            "name": "babel",
            "range": [
              108,
              113
            ],
            "loc": {
              "start": {
                "line": 6,
                "column": 6
              },
              "end": {
                "line": 6,
                "column": 11
              }
            }
          },
          "init": {
            "type": "CallExpression",
            "callee": {
              "type": "MemberExpression",
              "computed": false,
              "object": {
                "type": "Identifier",
                "name": "require",
                "range": [
                  116,
                  123
                ],
                "loc": {
                  "start": {
                    "line": 6,
                    "column": 14
                  },
                  "end": {
                    "line": 6,
                    "column": 21
                  }
                }
              },
              "property": {
                "type": "Identifier",
                "name": "resolve",
                "range": [
                  124,
                  131
                ],
                "loc": {
                  "start": {
                    "line": 6,
                    "column": 22
                  },
                  "end": {
                    "line": 6,
                    "column": 29
                  }
                }
              },
              "range": [
                116,
                131
              ],
              "loc": {
                "start": {
                  "line": 6,
                  "column": 14
                },
                "end": {
                  "line": 6,
                  "column": 29
                }
              }
            },
            "arguments": [
              {
                "type": "Literal",
                "value": "babel-cli/bin/babel",
                "raw": "\"babel-cli/bin/babel\"",
                "range": [
                  132,
                  153
                ],
                "loc": {
                  "start": {
                    "line": 6,
                    "column": 30
                  },
                  "end": {
                    "line": 6,
                    "column": 51
                  }
                }
              }
            ],
            "range": [
              116,
              154
            ],
            "loc": {
              "start": {
                "line": 6,
                "column": 14
              },
              "end": {
                "line": 6,
                "column": 52
              }
            }
          },
          "range": [
            108,
            154
          ],
          "loc": {
            "start": {
              "line": 6,
              "column": 6
            },
            "end": {
              "line": 6,
              "column": 52
            }
          }
        }
      ],
      "kind": "const",
      "range": [
        102,
        155
      ],
      "loc": {
        "start": {
          "line": 6,
          "column": 0
        },
        "end": {
          "line": 6,
          "column": 53
        }
      },
      "trailingComments": [
        {
          "type": "Block",
          "value": "*\r\n* The build function allows easy of access to boiler plate gulp code.\r\n* This allows a developer to quickly put together an ES6 code base and transform it to ES5 for compatibility.\r\n* This uses the Babel engine to transpile the code.\r\n*\r\n*\r\n* @param {Object} options - configuration for build function.\r\n* @param {String} [options.src=\"./src\"] - The location of the src document.\r\n* @param {String} [options.outDir=\".\"] - The location of the compiled files.\r\n* @return {null}\r\n",
          "range": [
            163,
            647
          ],
          "loc": {
            "start": {
              "line": 10,
              "column": 0
            },
            "end": {
              "line": 20,
              "column": 2
            }
          }
        }
      ]
    },
    {
      "type": "ExportDefaultDeclaration",
      "declaration": {
        "type": "FunctionDeclaration",
        "id": {
          "type": "Identifier",
          "name": "build",
          "range": [
            673,
            678
          ],
          "loc": {
            "start": {
              "line": 21,
              "column": 24
            },
            "end": {
              "line": 21,
              "column": 29
            }
          }
        },
        "params": [
          {
            "type": "AssignmentPattern",
            "left": {
              "type": "Identifier",
              "name": "options",
              "range": [
                679,
                686
              ],
              "loc": {
                "start": {
                  "line": 21,
                  "column": 30
                },
                "end": {
                  "line": 21,
                  "column": 37
                }
              }
            },
            "right": {
              "type": "ObjectExpression",
              "properties": [],
              "range": [
                689,
                691
              ],
              "loc": {
                "start": {
                  "line": 21,
                  "column": 40
                },
                "end": {
                  "line": 21,
                  "column": 42
                }
              }
            },
            "range": [
              679,
              691
            ],
            "loc": {
              "start": {
                "line": 21,
                "column": 30
              },
              "end": {
                "line": 21,
                "column": 42
              }
            }
          },
          {
            "type": "AssignmentPattern",
            "left": {
              "type": "Identifier",
              "name": "cb",
              "range": [
                693,
                695
              ],
              "loc": {
                "start": {
                  "line": 21,
                  "column": 44
                },
                "end": {
                  "line": 21,
                  "column": 46
                }
              }
            },
            "right": {
              "type": "Literal",
              "value": null,
              "raw": "null",
              "range": [
                698,
                702
              ],
              "loc": {
                "start": {
                  "line": 21,
                  "column": 49
                },
                "end": {
                  "line": 21,
                  "column": 53
                }
              }
            },
            "range": [
              693,
              702
            ],
            "loc": {
              "start": {
                "line": 21,
                "column": 44
              },
              "end": {
                "line": 21,
                "column": 53
              }
            }
          }
        ],
        "body": {
          "type": "BlockStatement",
          "body": [
            {
              "type": "IfStatement",
              "test": {
                "type": "CallExpression",
                "callee": {
                  "type": "MemberExpression",
                  "computed": false,
                  "object": {
                    "type": "Identifier",
                    "name": "_",
                    "range": [
                      715,
                      716
                    ],
                    "loc": {
                      "start": {
                        "line": 22,
                        "column": 8
                      },
                      "end": {
                        "line": 22,
                        "column": 9
                      }
                    }
                  },
                  "property": {
                    "type": "Identifier",
                    "name": "isFunction",
                    "range": [
                      717,
                      727
                    ],
                    "loc": {
                      "start": {
                        "line": 22,
                        "column": 10
                      },
                      "end": {
                        "line": 22,
                        "column": 20
                      }
                    }
                  },
                  "range": [
                    715,
                    727
                  ],
                  "loc": {
                    "start": {
                      "line": 22,
                      "column": 8
                    },
                    "end": {
                      "line": 22,
                      "column": 20
                    }
                  }
                },
                "arguments": [
                  {
                    "type": "Identifier",
                    "name": "options",
                    "range": [
                      728,
                      735
                    ],
                    "loc": {
                      "start": {
                        "line": 22,
                        "column": 21
                      },
                      "end": {
                        "line": 22,
                        "column": 28
                      }
                    }
                  }
                ],
                "range": [
                  715,
                  736
                ],
                "loc": {
                  "start": {
                    "line": 22,
                    "column": 8
                  },
                  "end": {
                    "line": 22,
                    "column": 29
                  }
                }
              },
              "consequent": {
                "type": "BlockStatement",
                "body": [
                  {
                    "type": "ExpressionStatement",
                    "expression": {
                      "type": "AssignmentExpression",
                      "operator": "=",
                      "left": {
                        "type": "Identifier",
                        "name": "cb",
                        "range": [
                          749,
                          751
                        ],
                        "loc": {
                          "start": {
                            "line": 23,
                            "column": 8
                          },
                          "end": {
                            "line": 23,
                            "column": 10
                          }
                        }
                      },
                      "right": {
                        "type": "Identifier",
                        "name": "options",
                        "range": [
                          754,
                          761
                        ],
                        "loc": {
                          "start": {
                            "line": 23,
                            "column": 13
                          },
                          "end": {
                            "line": 23,
                            "column": 20
                          }
                        }
                      },
                      "range": [
                        749,
                        761
                      ],
                      "loc": {
                        "start": {
                          "line": 23,
                          "column": 8
                        },
                        "end": {
                          "line": 23,
                          "column": 20
                        }
                      }
                    },
                    "range": [
                      749,
                      762
                    ],
                    "loc": {
                      "start": {
                        "line": 23,
                        "column": 8
                      },
                      "end": {
                        "line": 23,
                        "column": 21
                      }
                    }
                  },
                  {
                    "type": "ExpressionStatement",
                    "expression": {
                      "type": "AssignmentExpression",
                      "operator": "=",
                      "left": {
                        "type": "Identifier",
                        "name": "options",
                        "range": [
                          772,
                          779
                        ],
                        "loc": {
                          "start": {
                            "line": 24,
                            "column": 8
                          },
                          "end": {
                            "line": 24,
                            "column": 15
                          }
                        }
                      },
                      "right": {
                        "type": "Literal",
                        "value": null,
                        "raw": "null",
                        "range": [
                          782,
                          786
                        ],
                        "loc": {
                          "start": {
                            "line": 24,
                            "column": 18
                          },
                          "end": {
                            "line": 24,
                            "column": 22
                          }
                        }
                      },
                      "range": [
                        772,
                        786
                      ],
                      "loc": {
                        "start": {
                          "line": 24,
                          "column": 8
                        },
                        "end": {
                          "line": 24,
                          "column": 22
                        }
                      }
                    },
                    "range": [
                      772,
                      787
                    ],
                    "loc": {
                      "start": {
                        "line": 24,
                        "column": 8
                      },
                      "end": {
                        "line": 24,
                        "column": 23
                      }
                    }
                  }
                ],
                "range": [
                  738,
                  794
                ],
                "loc": {
                  "start": {
                    "line": 22,
                    "column": 31
                  },
                  "end": {
                    "line": 25,
                    "column": 5
                  }
                }
              },
              "alternate": null,
              "range": [
                711,
                794
              ],
              "loc": {
                "start": {
                  "line": 22,
                  "column": 4
                },
                "end": {
                  "line": 25,
                  "column": 5
                }
              }
            },
            {
              "type": "IfStatement",
              "test": {
                "type": "CallExpression",
                "callee": {
                  "type": "MemberExpression",
                  "computed": false,
                  "object": {
                    "type": "Identifier",
                    "name": "_",
                    "range": [
                      808,
                      809
                    ],
                    "loc": {
                      "start": {
                        "line": 28,
                        "column": 8
                      },
                      "end": {
                        "line": 28,
                        "column": 9
                      }
                    }
                  },
                  "property": {
                    "type": "Identifier",
                    "name": "isNil",
                    "range": [
                      810,
                      815
                    ],
                    "loc": {
                      "start": {
                        "line": 28,
                        "column": 10
                      },
                      "end": {
                        "line": 28,
                        "column": 15
                      }
                    }
                  },
                  "range": [
                    808,
                    815
                  ],
                  "loc": {
                    "start": {
                      "line": 28,
                      "column": 8
                    },
                    "end": {
                      "line": 28,
                      "column": 15
                    }
                  }
                },
                "arguments": [
                  {
                    "type": "Identifier",
                    "name": "options",
                    "range": [
                      816,
                      823
                    ],
                    "loc": {
                      "start": {
                        "line": 28,
                        "column": 16
                      },
                      "end": {
                        "line": 28,
                        "column": 23
                      }
                    }
                  }
                ],
                "range": [
                  808,
                  824
                ],
                "loc": {
                  "start": {
                    "line": 28,
                    "column": 8
                  },
                  "end": {
                    "line": 28,
                    "column": 24
                  }
                }
              },
              "consequent": {
                "type": "BlockStatement",
                "body": [
                  {
                    "type": "ExpressionStatement",
                    "expression": {
                      "type": "AssignmentExpression",
                      "operator": "=",
                      "left": {
                        "type": "Identifier",
                        "name": "options",
                        "range": [
                          837,
                          844
                        ],
                        "loc": {
                          "start": {
                            "line": 29,
                            "column": 8
                          },
                          "end": {
                            "line": 29,
                            "column": 15
                          }
                        }
                      },
                      "right": {
                        "type": "ObjectExpression",
                        "properties": [],
                        "range": [
                          847,
                          849
                        ],
                        "loc": {
                          "start": {
                            "line": 29,
                            "column": 18
                          },
                          "end": {
                            "line": 29,
                            "column": 20
                          }
                        }
                      },
                      "range": [
                        837,
                        849
                      ],
                      "loc": {
                        "start": {
                          "line": 29,
                          "column": 8
                        },
                        "end": {
                          "line": 29,
                          "column": 20
                        }
                      }
                    },
                    "range": [
                      837,
                      850
                    ],
                    "loc": {
                      "start": {
                        "line": 29,
                        "column": 8
                      },
                      "end": {
                        "line": 29,
                        "column": 21
                      }
                    }
                  }
                ],
                "range": [
                  826,
                  857
                ],
                "loc": {
                  "start": {
                    "line": 28,
                    "column": 26
                  },
                  "end": {
                    "line": 30,
                    "column": 5
                  }
                }
              },
              "alternate": null,
              "range": [
                804,
                857
              ],
              "loc": {
                "start": {
                  "line": 28,
                  "column": 4
                },
                "end": {
                  "line": 30,
                  "column": 5
                }
              }
            },
            {
              "type": "VariableDeclaration",
              "declarations": [
                {
                  "type": "VariableDeclarator",
                  "id": {
                    "type": "Identifier",
                    "name": "command",
                    "range": [
                      873,
                      880
                    ],
                    "loc": {
                      "start": {
                        "line": 34,
                        "column": 8
                      },
                      "end": {
                        "line": 34,
                        "column": 15
                      }
                    }
                  },
                  "init": {
                    "type": "ArrayExpression",
                    "elements": [
                      {
                        "type": "TemplateLiteral",
                        "quasis": [
                          {
                            "type": "TemplateElement",
                            "value": {
                              "raw": "",
                              "cooked": ""
                            },
                            "tail": false,
                            "range": [
                              894,
                              897
                            ],
                            "loc": {
                              "start": {
                                "line": 35,
                                "column": 8
                              },
                              "end": {
                                "line": 35,
                                "column": 11
                              }
                            }
                          },
                          {
                            "type": "TemplateElement",
                            "value": {
                              "raw": "",
                              "cooked": ""
                            },
                            "tail": true,
                            "range": [
                              902,
                              904
                            ],
                            "loc": {
                              "start": {
                                "line": 35,
                                "column": 16
                              },
                              "end": {
                                "line": 35,
                                "column": 18
                              }
                            }
                          }
                        ],
                        "expressions": [
                          {
                            "type": "Identifier",
                            "name": "babel",
                            "range": [
                              897,
                              902
                            ],
                            "loc": {
                              "start": {
                                "line": 35,
                                "column": 11
                              },
                              "end": {
                                "line": 35,
                                "column": 16
                              }
                            }
                          }
                        ],
                        "range": [
                          894,
                          904
                        ],
                        "loc": {
                          "start": {
                            "line": 35,
                            "column": 8
                          },
                          "end": {
                            "line": 35,
                            "column": 18
                          }
                        }
                      },
                      {
                        "type": "LogicalExpression",
                        "operator": "||",
                        "left": {
                          "type": "MemberExpression",
                          "computed": false,
                          "object": {
                            "type": "Identifier",
                            "name": "options",
                            "range": [
                              915,
                              922
                            ],
                            "loc": {
                              "start": {
                                "line": 36,
                                "column": 8
                              },
                              "end": {
                                "line": 36,
                                "column": 15
                              }
                            }
                          },
                          "property": {
                            "type": "Identifier",
                            "name": "src",
                            "range": [
                              923,
                              926
                            ],
                            "loc": {
                              "start": {
                                "line": 36,
                                "column": 16
                              },
                              "end": {
                                "line": 36,
                                "column": 19
                              }
                            }
                          },
                          "range": [
                            915,
                            926
                          ],
                          "loc": {
                            "start": {
                              "line": 36,
                              "column": 8
                            },
                            "end": {
                              "line": 36,
                              "column": 19
                            }
                          }
                        },
                        "right": {
                          "type": "Literal",
                          "value": "./src",
                          "raw": "\"./src\"",
                          "range": [
                            928,
                            935
                          ],
                          "loc": {
                            "start": {
                              "line": 36,
                              "column": 21
                            },
                            "end": {
                              "line": 36,
                              "column": 28
                            }
                          }
                        },
                        "range": [
                          915,
                          935
                        ],
                        "loc": {
                          "start": {
                            "line": 36,
                            "column": 8
                          },
                          "end": {
                            "line": 36,
                            "column": 28
                          }
                        }
                      },
                      {
                        "type": "TemplateLiteral",
                        "quasis": [
                          {
                            "type": "TemplateElement",
                            "value": {
                              "raw": "--out-dir",
                              "cooked": "--out-dir"
                            },
                            "tail": true,
                            "range": [
                              946,
                              957
                            ],
                            "loc": {
                              "start": {
                                "line": 37,
                                "column": 8
                              },
                              "end": {
                                "line": 37,
                                "column": 19
                              }
                            }
                          }
                        ],
                        "expressions": [],
                        "range": [
                          946,
                          957
                        ],
                        "loc": {
                          "start": {
                            "line": 37,
                            "column": 8
                          },
                          "end": {
                            "line": 37,
                            "column": 19
                          }
                        }
                      },
                      {
                        "type": "TemplateLiteral",
                        "quasis": [
                          {
                            "type": "TemplateElement",
                            "value": {
                              "raw": "",
                              "cooked": ""
                            },
                            "tail": false,
                            "range": [
                              968,
                              971
                            ],
                            "loc": {
                              "start": {
                                "line": 38,
                                "column": 8
                              },
                              "end": {
                                "line": 38,
                                "column": 11
                              }
                            }
                          },
                          {
                            "type": "TemplateElement",
                            "value": {
                              "raw": "",
                              "cooked": ""
                            },
                            "tail": true,
                            "range": [
                              1007,
                              1009
                            ],
                            "loc": {
                              "start": {
                                "line": 38,
                                "column": 47
                              },
                              "end": {
                                "line": 38,
                                "column": 49
                              }
                            }
                          }
                        ],
                        "expressions": [
                          {
                            "type": "LogicalExpression",
                            "operator": "||",
                            "left": {
                              "type": "LogicalExpression",
                              "operator": "||",
                              "left": {
                                "type": "MemberExpression",
                                "computed": false,
                                "object": {
                                  "type": "Identifier",
                                  "name": "options",
                                  "range": [
                                    971,
                                    978
                                  ],
                                  "loc": {
                                    "start": {
                                      "line": 38,
                                      "column": 11
                                    },
                                    "end": {
                                      "line": 38,
                                      "column": 18
                                    }
                                  }
                                },
                                "property": {
                                  "type": "Identifier",
                                  "name": "out_dir",
                                  "range": [
                                    979,
                                    986
                                  ],
                                  "loc": {
                                    "start": {
                                      "line": 38,
                                      "column": 19
                                    },
                                    "end": {
                                      "line": 38,
                                      "column": 26
                                    }
                                  }
                                },
                                "range": [
                                  971,
                                  986
                                ],
                                "loc": {
                                  "start": {
                                    "line": 38,
                                    "column": 11
                                  },
                                  "end": {
                                    "line": 38,
                                    "column": 26
                                  }
                                }
                              },
                              "right": {
                                "type": "MemberExpression",
                                "computed": false,
                                "object": {
                                  "type": "Identifier",
                                  "name": "options",
                                  "range": [
                                    988,
                                    995
                                  ],
                                  "loc": {
                                    "start": {
                                      "line": 38,
                                      "column": 28
                                    },
                                    "end": {
                                      "line": 38,
                                      "column": 35
                                    }
                                  }
                                },
                                "property": {
                                  "type": "Identifier",
                                  "name": "outDir",
                                  "range": [
                                    996,
                                    1002
                                  ],
                                  "loc": {
                                    "start": {
                                      "line": 38,
                                      "column": 36
                                    },
                                    "end": {
                                      "line": 38,
                                      "column": 42
                                    }
                                  }
                                },
                                "range": [
                                  988,
                                  1002
                                ],
                                "loc": {
                                  "start": {
                                    "line": 38,
                                    "column": 28
                                  },
                                  "end": {
                                    "line": 38,
                                    "column": 42
                                  }
                                }
                              },
                              "range": [
                                971,
                                1002
                              ],
                              "loc": {
                                "start": {
                                  "line": 38,
                                  "column": 11
                                },
                                "end": {
                                  "line": 38,
                                  "column": 42
                                }
                              }
                            },
                            "right": {
                              "type": "Literal",
                              "value": ".",
                              "raw": "'.'",
                              "range": [
                                1004,
                                1007
                              ],
                              "loc": {
                                "start": {
                                  "line": 38,
                                  "column": 44
                                },
                                "end": {
                                  "line": 38,
                                  "column": 47
                                }
                              }
                            },
                            "range": [
                              971,
                              1007
                            ],
                            "loc": {
                              "start": {
                                "line": 38,
                                "column": 11
                              },
                              "end": {
                                "line": 38,
                                "column": 47
                              }
                            }
                          }
                        ],
                        "range": [
                          968,
                          1009
                        ],
                        "loc": {
                          "start": {
                            "line": 38,
                            "column": 8
                          },
                          "end": {
                            "line": 38,
                            "column": 49
                          }
                        }
                      }
                    ],
                    "range": [
                      883,
                      1016
                    ],
                    "loc": {
                      "start": {
                        "line": 34,
                        "column": 18
                      },
                      "end": {
                        "line": 39,
                        "column": 5
                      }
                    }
                  },
                  "range": [
                    873,
                    1016
                  ],
                  "loc": {
                    "start": {
                      "line": 34,
                      "column": 8
                    },
                    "end": {
                      "line": 39,
                      "column": 5
                    }
                  }
                }
              ],
              "kind": "let",
              "range": [
                869,
                1026
              ],
              "loc": {
                "start": {
                  "line": 34,
                  "column": 4
                },
                "end": {
                  "line": 42,
                  "column": 4
                }
              }
            },
            {
              "type": "IfStatement",
              "test": {
                "type": "MemberExpression",
                "computed": false,
                "object": {
                  "type": "Identifier",
                  "name": "options",
                  "range": [
                    1030,
                    1037
                  ],
                  "loc": {
                    "start": {
                      "line": 42,
                      "column": 8
                    },
                    "end": {
                      "line": 42,
                      "column": 15
                    }
                  }
                },
                "property": {
                  "type": "Identifier",
                  "name": "watch",
                  "range": [
                    1038,
                    1043
                  ],
                  "loc": {
                    "start": {
                      "line": 42,
                      "column": 16
                    },
                    "end": {
                      "line": 42,
                      "column": 21
                    }
                  }
                },
                "range": [
                  1030,
                  1043
                ],
                "loc": {
                  "start": {
                    "line": 42,
                    "column": 8
                  },
                  "end": {
                    "line": 42,
                    "column": 21
                  }
                }
              },
              "consequent": {
                "type": "BlockStatement",
                "body": [
                  {
                    "type": "ExpressionStatement",
                    "expression": {
                      "type": "CallExpression",
                      "callee": {
                        "type": "MemberExpression",
                        "computed": false,
                        "object": {
                          "type": "Identifier",
                          "name": "command",
                          "range": [
                            1056,
                            1063
                          ],
                          "loc": {
                            "start": {
                              "line": 43,
                              "column": 8
                            },
                            "end": {
                              "line": 43,
                              "column": 15
                            }
                          }
                        },
                        "property": {
                          "type": "Identifier",
                          "name": "push",
                          "range": [
                            1064,
                            1068
                          ],
                          "loc": {
                            "start": {
                              "line": 43,
                              "column": 16
                            },
                            "end": {
                              "line": 43,
                              "column": 20
                            }
                          }
                        },
                        "range": [
                          1056,
                          1068
                        ],
                        "loc": {
                          "start": {
                            "line": 43,
                            "column": 8
                          },
                          "end": {
                            "line": 43,
                            "column": 20
                          }
                        }
                      },
                      "arguments": [
                        {
                          "type": "Literal",
                          "value": "--watch",
                          "raw": "\"--watch\"",
                          "range": [
                            1069,
                            1078
                          ],
                          "loc": {
                            "start": {
                              "line": 43,
                              "column": 21
                            },
                            "end": {
                              "line": 43,
                              "column": 30
                            }
                          }
                        }
                      ],
                      "range": [
                        1056,
                        1079
                      ],
                      "loc": {
                        "start": {
                          "line": 43,
                          "column": 8
                        },
                        "end": {
                          "line": 43,
                          "column": 31
                        }
                      }
                    },
                    "range": [
                      1056,
                      1080
                    ],
                    "loc": {
                      "start": {
                        "line": 43,
                        "column": 8
                      },
                      "end": {
                        "line": 43,
                        "column": 32
                      }
                    }
                  }
                ],
                "range": [
                  1045,
                  1087
                ],
                "loc": {
                  "start": {
                    "line": 42,
                    "column": 23
                  },
                  "end": {
                    "line": 44,
                    "column": 5
                  }
                }
              },
              "alternate": null,
              "range": [
                1026,
                1087
              ],
              "loc": {
                "start": {
                  "line": 42,
                  "column": 4
                },
                "end": {
                  "line": 44,
                  "column": 5
                }
              }
            },
            {
              "type": "VariableDeclaration",
              "declarations": [
                {
                  "type": "VariableDeclarator",
                  "id": {
                    "type": "Identifier",
                    "name": "child",
                    "range": [
                      1105,
                      1110
                    ],
                    "loc": {
                      "start": {
                        "line": 49,
                        "column": 8
                      },
                      "end": {
                        "line": 49,
                        "column": 13
                      }
                    }
                  },
                  "init": {
                    "type": "CallExpression",
                    "callee": {
                      "type": "Identifier",
                      "name": "spawn",
                      "range": [
                        1113,
                        1118
                      ],
                      "loc": {
                        "start": {
                          "line": 49,
                          "column": 16
                        },
                        "end": {
                          "line": 49,
                          "column": 21
                        }
                      }
                    },
                    "arguments": [
                      {
                        "type": "Identifier",
                        "name": "node",
                        "range": [
                          1119,
                          1123
                        ],
                        "loc": {
                          "start": {
                            "line": 49,
                            "column": 22
                          },
                          "end": {
                            "line": 49,
                            "column": 26
                          }
                        }
                      },
                      {
                        "type": "Identifier",
                        "name": "command",
                        "range": [
                          1125,
                          1132
                        ],
                        "loc": {
                          "start": {
                            "line": 49,
                            "column": 28
                          },
                          "end": {
                            "line": 49,
                            "column": 35
                          }
                        }
                      },
                      {
                        "type": "ObjectExpression",
                        "properties": [
                          {
                            "type": "Property",
                            "key": {
                              "type": "Identifier",
                              "name": "stdio",
                              "range": [
                                1145,
                                1150
                              ],
                              "loc": {
                                "start": {
                                  "line": 50,
                                  "column": 8
                                },
                                "end": {
                                  "line": 50,
                                  "column": 13
                                }
                              }
                            },
                            "value": {
                              "type": "Literal",
                              "value": "inherit",
                              "raw": "\"inherit\"",
                              "range": [
                                1152,
                                1161
                              ],
                              "loc": {
                                "start": {
                                  "line": 50,
                                  "column": 15
                                },
                                "end": {
                                  "line": 50,
                                  "column": 24
                                }
                              }
                            },
                            "kind": "init",
                            "method": false,
                            "shorthand": false,
                            "computed": false,
                            "range": [
                              1145,
                              1161
                            ],
                            "loc": {
                              "start": {
                                "line": 50,
                                "column": 8
                              },
                              "end": {
                                "line": 50,
                                "column": 24
                              }
                            }
                          }
                        ],
                        "range": [
                          1134,
                          1168
                        ],
                        "loc": {
                          "start": {
                            "line": 49,
                            "column": 37
                          },
                          "end": {
                            "line": 51,
                            "column": 5
                          }
                        }
                      }
                    ],
                    "range": [
                      1113,
                      1169
                    ],
                    "loc": {
                      "start": {
                        "line": 49,
                        "column": 16
                      },
                      "end": {
                        "line": 51,
                        "column": 6
                      }
                    }
                  },
                  "range": [
                    1105,
                    1169
                  ],
                  "loc": {
                    "start": {
                      "line": 49,
                      "column": 8
                    },
                    "end": {
                      "line": 51,
                      "column": 6
                    }
                  }
                }
              ],
              "kind": "var",
              "range": [
                1101,
                1170
              ],
              "loc": {
                "start": {
                  "line": 49,
                  "column": 4
                },
                "end": {
                  "line": 51,
                  "column": 7
                }
              }
            },
            {
              "type": "ExpressionStatement",
              "expression": {
                "type": "CallExpression",
                "callee": {
                  "type": "MemberExpression",
                  "computed": false,
                  "object": {
                    "type": "Identifier",
                    "name": "child",
                    "range": [
                      1182,
                      1187
                    ],
                    "loc": {
                      "start": {
                        "line": 55,
                        "column": 4
                      },
                      "end": {
                        "line": 55,
                        "column": 9
                      }
                    }
                  },
                  "property": {
                    "type": "Identifier",
                    "name": "on",
                    "range": [
                      1188,
                      1190
                    ],
                    "loc": {
                      "start": {
                        "line": 55,
                        "column": 10
                      },
                      "end": {
                        "line": 55,
                        "column": 12
                      }
                    }
                  },
                  "range": [
                    1182,
                    1190
                  ],
                  "loc": {
                    "start": {
                      "line": 55,
                      "column": 4
                    },
                    "end": {
                      "line": 55,
                      "column": 12
                    }
                  }
                },
                "arguments": [
                  {
                    "type": "Literal",
                    "value": "error",
                    "raw": "\"error\"",
                    "range": [
                      1191,
                      1198
                    ],
                    "loc": {
                      "start": {
                        "line": 55,
                        "column": 13
                      },
                      "end": {
                        "line": 55,
                        "column": 20
                      }
                    }
                  },
                  {
                    "type": "FunctionExpression",
                    "id": null,
                    "params": [
                      {
                        "type": "Identifier",
                        "name": "e",
                        "range": [
                          1208,
                          1209
                        ],
                        "loc": {
                          "start": {
                            "line": 55,
                            "column": 30
                          },
                          "end": {
                            "line": 55,
                            "column": 31
                          }
                        }
                      }
                    ],
                    "body": {
                      "type": "BlockStatement",
                      "body": [
                        {
                          "type": "ExpressionStatement",
                          "expression": {
                            "type": "CallExpression",
                            "callee": {
                              "type": "Identifier",
                              "name": "cb",
                              "range": [
                                1219,
                                1221
                              ],
                              "loc": {
                                "start": {
                                  "line": 56,
                                  "column": 6
                                },
                                "end": {
                                  "line": 56,
                                  "column": 8
                                }
                              }
                            },
                            "arguments": [
                              {
                                "type": "Identifier",
                                "name": "e",
                                "range": [
                                  1222,
                                  1223
                                ],
                                "loc": {
                                  "start": {
                                    "line": 56,
                                    "column": 9
                                  },
                                  "end": {
                                    "line": 56,
                                    "column": 10
                                  }
                                }
                              }
                            ],
                            "range": [
                              1219,
                              1224
                            ],
                            "loc": {
                              "start": {
                                "line": 56,
                                "column": 6
                              },
                              "end": {
                                "line": 56,
                                "column": 11
                              }
                            }
                          },
                          "range": [
                            1219,
                            1225
                          ],
                          "loc": {
                            "start": {
                              "line": 56,
                              "column": 6
                            },
                            "end": {
                              "line": 56,
                              "column": 12
                            }
                          }
                        }
                      ],
                      "range": [
                        1210,
                        1232
                      ],
                      "loc": {
                        "start": {
                          "line": 55,
                          "column": 32
                        },
                        "end": {
                          "line": 57,
                          "column": 5
                        }
                      }
                    },
                    "generator": false,
                    "expression": false,
                    "range": [
                      1199,
                      1232
                    ],
                    "loc": {
                      "start": {
                        "line": 55,
                        "column": 21
                      },
                      "end": {
                        "line": 57,
                        "column": 5
                      }
                    }
                  }
                ],
                "range": [
                  1182,
                  1233
                ],
                "loc": {
                  "start": {
                    "line": 55,
                    "column": 4
                  },
                  "end": {
                    "line": 57,
                    "column": 6
                  }
                }
              },
              "range": [
                1182,
                1239
              ],
              "loc": {
                "start": {
                  "line": 55,
                  "column": 4
                },
                "end": {
                  "line": 58,
                  "column": 4
                }
              }
            },
            {
              "type": "IfStatement",
              "test": {
                "type": "UnaryExpression",
                "operator": "!",
                "argument": {
                  "type": "MemberExpression",
                  "computed": false,
                  "object": {
                    "type": "Identifier",
                    "name": "options",
                    "range": [
                      1244,
                      1251
                    ],
                    "loc": {
                      "start": {
                        "line": 58,
                        "column": 9
                      },
                      "end": {
                        "line": 58,
                        "column": 16
                      }
                    }
                  },
                  "property": {
                    "type": "Identifier",
                    "name": "watch",
                    "range": [
                      1252,
                      1257
                    ],
                    "loc": {
                      "start": {
                        "line": 58,
                        "column": 17
                      },
                      "end": {
                        "line": 58,
                        "column": 22
                      }
                    }
                  },
                  "range": [
                    1244,
                    1257
                  ],
                  "loc": {
                    "start": {
                      "line": 58,
                      "column": 9
                    },
                    "end": {
                      "line": 58,
                      "column": 22
                    }
                  }
                },
                "prefix": true,
                "range": [
                  1243,
                  1257
                ],
                "loc": {
                  "start": {
                    "line": 58,
                    "column": 8
                  },
                  "end": {
                    "line": 58,
                    "column": 22
                  }
                }
              },
              "consequent": {
                "type": "BlockStatement",
                "body": [
                  {
                    "type": "ExpressionStatement",
                    "expression": {
                      "type": "CallExpression",
                      "callee": {
                        "type": "MemberExpression",
                        "computed": false,
                        "object": {
                          "type": "Identifier",
                          "name": "child",
                          "range": [
                            1270,
                            1275
                          ],
                          "loc": {
                            "start": {
                              "line": 59,
                              "column": 8
                            },
                            "end": {
                              "line": 59,
                              "column": 13
                            }
                          }
                        },
                        "property": {
                          "type": "Identifier",
                          "name": "on",
                          "range": [
                            1276,
                            1278
                          ],
                          "loc": {
                            "start": {
                              "line": 59,
                              "column": 14
                            },
                            "end": {
                              "line": 59,
                              "column": 16
                            }
                          }
                        },
                        "range": [
                          1270,
                          1278
                        ],
                        "loc": {
                          "start": {
                            "line": 59,
                            "column": 8
                          },
                          "end": {
                            "line": 59,
                            "column": 16
                          }
                        }
                      },
                      "arguments": [
                        {
                          "type": "Literal",
                          "value": "exit",
                          "raw": "\"exit\"",
                          "range": [
                            1279,
                            1285
                          ],
                          "loc": {
                            "start": {
                              "line": 59,
                              "column": 17
                            },
                            "end": {
                              "line": 59,
                              "column": 23
                            }
                          }
                        },
                        {
                          "type": "FunctionExpression",
                          "id": null,
                          "params": [
                            {
                              "type": "Identifier",
                              "name": "code",
                              "range": [
                                1296,
                                1300
                              ],
                              "loc": {
                                "start": {
                                  "line": 59,
                                  "column": 34
                                },
                                "end": {
                                  "line": 59,
                                  "column": 38
                                }
                              }
                            }
                          ],
                          "body": {
                            "type": "BlockStatement",
                            "body": [
                              {
                                "type": "IfStatement",
                                "test": {
                                  "type": "CallExpression",
                                  "callee": {
                                    "type": "MemberExpression",
                                    "computed": false,
                                    "object": {
                                      "type": "Identifier",
                                      "name": "_",
                                      "range": [
                                        1321,
                                        1322
                                      ],
                                      "loc": {
                                        "start": {
                                          "line": 60,
                                          "column": 16
                                        },
                                        "end": {
                                          "line": 60,
                                          "column": 17
                                        }
                                      }
                                    },
                                    "property": {
                                      "type": "Identifier",
                                      "name": "isFunction",
                                      "range": [
                                        1323,
                                        1333
                                      ],
                                      "loc": {
                                        "start": {
                                          "line": 60,
                                          "column": 18
                                        },
                                        "end": {
                                          "line": 60,
                                          "column": 28
                                        }
                                      }
                                    },
                                    "range": [
                                      1321,
                                      1333
                                    ],
                                    "loc": {
                                      "start": {
                                        "line": 60,
                                        "column": 16
                                      },
                                      "end": {
                                        "line": 60,
                                        "column": 28
                                      }
                                    }
                                  },
                                  "arguments": [
                                    {
                                      "type": "Identifier",
                                      "name": "cb",
                                      "range": [
                                        1334,
                                        1336
                                      ],
                                      "loc": {
                                        "start": {
                                          "line": 60,
                                          "column": 29
                                        },
                                        "end": {
                                          "line": 60,
                                          "column": 31
                                        }
                                      }
                                    }
                                  ],
                                  "range": [
                                    1321,
                                    1337
                                  ],
                                  "loc": {
                                    "start": {
                                      "line": 60,
                                      "column": 16
                                    },
                                    "end": {
                                      "line": 60,
                                      "column": 32
                                    }
                                  }
                                },
                                "consequent": {
                                  "type": "BlockStatement",
                                  "body": [
                                    {
                                      "type": "ExpressionStatement",
                                      "expression": {
                                        "type": "CallExpression",
                                        "callee": {
                                          "type": "Identifier",
                                          "name": "cb",
                                          "range": [
                                            1358,
                                            1360
                                          ],
                                          "loc": {
                                            "start": {
                                              "line": 61,
                                              "column": 16
                                            },
                                            "end": {
                                              "line": 61,
                                              "column": 18
                                            }
                                          }
                                        },
                                        "arguments": [
                                          {
                                            "type": "Literal",
                                            "value": null,
                                            "raw": "null",
                                            "range": [
                                              1361,
                                              1365
                                            ],
                                            "loc": {
                                              "start": {
                                                "line": 61,
                                                "column": 19
                                              },
                                              "end": {
                                                "line": 61,
                                                "column": 23
                                              }
                                            }
                                          },
                                          {
                                            "type": "Identifier",
                                            "name": "code",
                                            "range": [
                                              1367,
                                              1371
                                            ],
                                            "loc": {
                                              "start": {
                                                "line": 61,
                                                "column": 25
                                              },
                                              "end": {
                                                "line": 61,
                                                "column": 29
                                              }
                                            }
                                          }
                                        ],
                                        "range": [
                                          1358,
                                          1372
                                        ],
                                        "loc": {
                                          "start": {
                                            "line": 61,
                                            "column": 16
                                          },
                                          "end": {
                                            "line": 61,
                                            "column": 30
                                          }
                                        }
                                      },
                                      "range": [
                                        1358,
                                        1373
                                      ],
                                      "loc": {
                                        "start": {
                                          "line": 61,
                                          "column": 16
                                        },
                                        "end": {
                                          "line": 61,
                                          "column": 31
                                        }
                                      }
                                    }
                                  ],
                                  "range": [
                                    1339,
                                    1388
                                  ],
                                  "loc": {
                                    "start": {
                                      "line": 60,
                                      "column": 34
                                    },
                                    "end": {
                                      "line": 62,
                                      "column": 13
                                    }
                                  }
                                },
                                "alternate": null,
                                "range": [
                                  1317,
                                  1388
                                ],
                                "loc": {
                                  "start": {
                                    "line": 60,
                                    "column": 12
                                  },
                                  "end": {
                                    "line": 62,
                                    "column": 13
                                  }
                                }
                              }
                            ],
                            "range": [
                              1302,
                              1399
                            ],
                            "loc": {
                              "start": {
                                "line": 59,
                                "column": 40
                              },
                              "end": {
                                "line": 63,
                                "column": 9
                              }
                            }
                          },
                          "generator": false,
                          "expression": false,
                          "range": [
                            1287,
                            1399
                          ],
                          "loc": {
                            "start": {
                              "line": 59,
                              "column": 25
                            },
                            "end": {
                              "line": 63,
                              "column": 9
                            }
                          }
                        }
                      ],
                      "range": [
                        1270,
                        1400
                      ],
                      "loc": {
                        "start": {
                          "line": 59,
                          "column": 8
                        },
                        "end": {
                          "line": 63,
                          "column": 10
                        }
                      }
                    },
                    "range": [
                      1270,
                      1406
                    ],
                    "loc": {
                      "start": {
                        "line": 59,
                        "column": 8
                      },
                      "end": {
                        "line": 64,
                        "column": 4
                      }
                    }
                  }
                ],
                "range": [
                  1259,
                  1407
                ],
                "loc": {
                  "start": {
                    "line": 58,
                    "column": 24
                  },
                  "end": {
                    "line": 64,
                    "column": 5
                  }
                }
              },
              "alternate": null,
              "range": [
                1239,
                1407
              ],
              "loc": {
                "start": {
                  "line": 58,
                  "column": 4
                },
                "end": {
                  "line": 64,
                  "column": 5
                }
              }
            }
          ],
          "range": [
            704,
            1410
          ],
          "loc": {
            "start": {
              "line": 21,
              "column": 55
            },
            "end": {
              "line": 65,
              "column": 1
            }
          }
        },
        "generator": false,
        "expression": false,
        "range": [
          664,
          1410
        ],
        "loc": {
          "start": {
            "line": 21,
            "column": 15
          },
          "end": {
            "line": 65,
            "column": 1
          }
        },
        "leadingComments": [
          {
            "type": "Block",
            "value": "*\r\n* The build function allows easy of access to boiler plate gulp code.\r\n* This allows a developer to quickly put together an ES6 code base and transform it to ES5 for compatibility.\r\n* This uses the Babel engine to transpile the code.\r\n*\r\n*\r\n* @param {Object} options - configuration for build function.\r\n* @param {String} [options.src=\"./src\"] - The location of the src document.\r\n* @param {String} [options.outDir=\".\"] - The location of the compiled files.\r\n* @return {null}\r\n",
            "range": [
              163,
              647
            ],
            "loc": {
              "start": {
                "line": 10,
                "column": 0
              },
              "end": {
                "line": 20,
                "column": 2
              }
            }
          }
        ],
        "trailingComments": []
      },
      "range": [
        649,
        1410
      ],
      "loc": {
        "start": {
          "line": 21,
          "column": 0
        },
        "end": {
          "line": 65,
          "column": 1
        }
      },
      "leadingComments": [
        {
          "type": "Block",
          "value": "*\r\n* The build function allows easy of access to boiler plate gulp code.\r\n* This allows a developer to quickly put together an ES6 code base and transform it to ES5 for compatibility.\r\n* This uses the Babel engine to transpile the code.\r\n*\r\n*\r\n* @param {Object} options - configuration for build function.\r\n* @param {String} [options.src=\"./src\"] - The location of the src document.\r\n* @param {String} [options.outDir=\".\"] - The location of the compiled files.\r\n* @return {null}\r\n",
          "range": [
            163,
            647
          ],
          "loc": {
            "start": {
              "line": 10,
              "column": 0
            },
            "end": {
              "line": 20,
              "column": 2
            }
          }
        }
      ]
    }
  ],
  "sourceType": "module",
  "range": [
    0,
    1410
  ],
  "loc": {
    "start": {
      "line": 1,
      "column": 0
    },
    "end": {
      "line": 65,
      "column": 1
    }
  },
  "comments": [
    {
      "type": "Block",
      "value": "*\r\n* The build function allows easy of access to boiler plate gulp code.\r\n* This allows a developer to quickly put together an ES6 code base and transform it to ES5 for compatibility.\r\n* This uses the Babel engine to transpile the code.\r\n*\r\n*\r\n* @param {Object} options - configuration for build function.\r\n* @param {String} [options.src=\"./src\"] - The location of the src document.\r\n* @param {String} [options.outDir=\".\"] - The location of the compiled files.\r\n* @return {null}\r\n",
      "range": [
        163,
        647
      ],
      "loc": {
        "start": {
          "line": 10,
          "column": 0
        },
        "end": {
          "line": 20,
          "column": 2
        }
      }
    }
  ]
}